-------------------------------------------------------------------------------
Test set: io.gitlab.dgahn.springrestapi.events.EventTest
-------------------------------------------------------------------------------
Tests run: 9, Failures: 0, Errors: 0, Skipped: 0, Time elapsed: 0.024 s - in io.gitlab.dgahn.springrestapi.events.EventTest
